[
    {
        "id": 10,
        "name": "Prognosis",
        "label": "Prognosis",
        "sequenceNo": 1,
        "elements": [
            {
                "id": 68,
                "name": "INITIATORY",
                "label": "Initiatory",
                "sequenceNo": 1,
                "tablename": "PRODUCTPROGNOSIS",
                "elementType": "Prognosis",
                "inputType": "SINGLEVALUESTRING",
                "localeSn": null,
                "countrySn": null,
                "visible": null,
                "changeable": null,
                "value": {
                    "BE": {
                        "countrySn": 100000021,
                        "countryShortcut": "BE",
                        "value": 8888,
                        "color": "Green",
                        "colorForUpdate": "GREEN",
                        "visible": true,
                        "changeable": true
                    },
                    "NL": {
                        "countrySn": 100000121,
                        "countryShortcut": "NL",
                        "value": 888,
                        "color": "Green",
                        "colorForUpdate": "GREEN",
                        "visible": true,
                        "changeable": true
                    },
                    "Total": {
                        "countrySn": null,
                        "countryShortcut": "Total",
                        "value": null,
                        "color": "Green",
                        "colorForUpdate": "GREEN",
                        "visible": null,
                        "changeable": null
                    }
                },
                "color": "GREEN",
                "valueType": null,
                "isMultiValue": false,
                "catlogSn": 106
            },
            {
                "id": 79,
                "name": "MAGAZINE",
                "label": "Magazine",
                "sequenceNo": 2,
                "tablename": "PRODUCTPROGNOSIS",
                "elementType": "Prognosis",
                "inputType": "SINGLEVALUESTRING",
                "localeSn": null,
                "countrySn": null,
                "visible": null,
                "changeable": null,
                "value": {
                    "BE": {
                        "countrySn": 100000021,
                        "countryShortcut": "BE",
                        "value": null,
                        "color": "Green",
                        "colorForUpdate": "GREEN",
                        "visible": true,
                        "changeable": true
                    },
                    "NL": {
                        "countrySn": 100000121,
                        "countryShortcut": "NL",
                        "value": null,
                        "color": "Green",
                        "colorForUpdate": "GREEN",
                        "visible": true,
                        "changeable": true
                    },
                    "Total": {
                        "countrySn": null,
                        "countryShortcut": "Total",
                        "value": null,
                        "color": "Green",
                        "colorForUpdate": "GREEN",
                        "visible": null,
                        "changeable": null
                    }
                },
                "color": "GREEN",
                "valueType": null,
                "isMultiValue": false,
                "catlogSn": 106
            },
            {
                "id": 84,
                "name": "NEWSLETTER",
                "label": "Newsletter",
                "sequenceNo": 3,
                "tablename": "PRODUCTPROGNOSIS",
                "elementType": "Prognosis",
                "inputType": "SINGLEVALUESTRING",
                "localeSn": null,
                "countrySn": null,
                "visible": null,
                "changeable": null,
                "value": {
                    "BE": {
                        "countrySn": 100000021,
                        "countryShortcut": "BE",
                        "value": null,
                        "color": "Green",
                        "colorForUpdate": "GREEN",
                        "visible": true,
                        "changeable": true
                    },
                    "NL": {
                        "countrySn": 100000121,
                        "countryShortcut": "NL",
                        "value": null,
                        "color": "Green",
                        "colorForUpdate": "GREEN",
                        "visible": true,
                        "changeable": true
                    },
                    "Total": {
                        "countrySn": null,
                        "countryShortcut": "Total",
                        "value": null,
                        "color": "Green",
                        "colorForUpdate": "GREEN",
                        "visible": null,
                        "changeable": null
                    }
                },
                "color": "GREEN",
                "valueType": null,
                "isMultiValue": false,
                "catlogSn": 106
            },
            {
                "id": 138,
                "name": "TOPLIST",
                "label": "Toplist",
                "sequenceNo": 4,
                "tablename": "PRODUCTPROGNOSIS",
                "elementType": "Prognosis",
                "inputType": "SINGLEVALUESTRING",
                "localeSn": null,
                "countrySn": null,
                "visible": null,
                "changeable": null,
                "value": {
                    "BE": {
                        "countrySn": 100000021,
                        "countryShortcut": "BE",
                        "value": null,
                        "color": "Green",
                        "colorForUpdate": "GREEN",
                        "visible": true,
                        "changeable": true
                    },
                    "NL": {
                        "countrySn": 100000121,
                        "countryShortcut": "NL",
                        "value": null,
                        "color": "Green",
                        "colorForUpdate": "GREEN",
                        "visible": true,
                        "changeable": true
                    },
                    "Total": {
                        "countrySn": null,
                        "countryShortcut": "Total",
                        "value": null,
                        "color": "Green",
                        "colorForUpdate": "GREEN",
                        "visible": null,
                        "changeable": null
                    }
                },
                "color": "GREEN",
                "valueType": null,
                "isMultiValue": false,
                "catlogSn": 106
            }
        ]
    }
]