{
    "1": [
        "General",
        "General"
    ],
    "2": [
        "ProductText",
        "Product text"
    ],
    "3": [
        "ExtraContent",
        "Extra content"
    ],
    "4": [
        "Genres",
        "Genres"
    ],
    "5": [
        "Prices",
        "Prices"
    ],
    "6": [
        "Prognosis",
        "Prognosis"
    ],
    "7": [
        "Availability",
        "Availability"
    ],
    "8": [
        "Technical",
        "Technical"
    ]
}